[
    {
    "_id":1,
    "name":"British Airlines",
    "startingPoint":"DAL",
    "endingPoint":"MCI",
    "durationHours":16,
    "pilotId":123,
    "planeId":12345
    },
    {
        "_id":2,
        "name":"Indian Airlines",
        "startingPoint":"LVF",
        "endingPoint":"ABC",
        "durationHours":21,
        "pilotId":124,
        "planeId":12346
    },
    {
        "_id":3,
        "name":"Air India",
        "startingPoint":"QWE",
        "endingPoint":"DEF",
        "durationHours":11,
        "pilotId":125,
        "planeId":12347
    },
    {
        "_id":4,
        "name":"American Airlines",
        "startingPoint":"DFG",
        "endingPoint":"GHI",
        "durationHours":4,
        "pilotId":125,
        "planeId":12347
    }
    
    
    
    
    
    ]