

[
    {
    "_id": 1,
    "lastName": "james",
    "firstName": "micheal",
    "hoursFlown": 5,
    "isCurrent": true
    },
    
    {
    "_id": 2,
    "lastName": "Roger",
    "firstName": "James",
    "hoursFlown": 4,
    "isCurrent": false
    },
    {
    "_id": 3,
    "lastName": "George",
    "firstName": "Steve",
    "hoursFlown": 4,
    "isCurrent": true
    },
    
    {
    "_id": 4,
    "lastName": "Mike",
    "firstName": "jame",
    "hoursFlown": 4,
    "isCurrent": false
    },
    {
        "_id": 5,
        "lastName": "Anthony",
        "firstName": "Ann",
        "hoursFlown": 4,
        "isCurrent": false
        }
    
    ]
     